{
    "name": "Kasir",
    "alias": "kasir",
    "description": "",
    "keywords": [],
    "order": 0,
    "providers": [
        "Modules\\Kasir\\Providers\\KasirServiceProvider"
    ],
    "aliases": {},
    "files": [],
    "requires": []
}
